[2022-05-04 22:09:12] [nameserver-fingerprint] [dns] [info] blockchair.com [dns3.cloudns.net.,dns7.cloudns.net.,dns4.cloudns.net.,dns8.cloudns.net.]
[2022-05-04 22:09:15] [txt-fingerprint] [dns] [info] blockchair.com ["v=spf1 redirect=_spf.yandex.net","include:6286020.spf08.hubspotemail.net"]
[2022-05-04 22:09:30] [mx-fingerprint] [dns] [info] blockchair.com [10 mx.yandex.net.]
